{
    "scope": "set",
    "default": { 
        "_comment" : "This is the information related to the default/baseline model that was trained on the entire dataset. The support corresponds to the no. of plots selected by the user on the map",
        "attribution": { "M01_1_NbJ_RHmoy60" : -0.2, "M01_1_NbJ_indHum8710" : 0.12,  "M01_1_NbJ_Tmoy20" : 0.25}, 
        "confidence": {"r2-value": 0.4, "confidence-level" : "high"},
        "support" : 5,
        "support-set" : ["plotid1", "plotid2", "plotid3", "plotid4", "plotid5"] 
    },
    "conditional" : {
        "support": 5,
        "_comment" : "Each entry in the rules array corresponds to rule that explains at least one plot in the selection of the user. Missing attributes in the attribution dictionary are assumed an attribution of zero",
        "rules" : [
            {
                "rule-id" : 1,
                "confidence": {"r2-value": 0.4, "confidence-level" : "high"},
                "conditions": [ 
                    {"attribute-type" : "numerical", "attribute-name": "M01_1_NbJ_RHmoy60", "operator" : ">=", "attribute-value": 340 },
                    {"attribute-type" : "boolean", "attribute-name": "zone_a_risque", "operator" : "=", "attribute-value": false } 
                ],
                "attribution": { "M01_1_NbJ_RHmoy60" : -0.2, "M01_1_NbJ_indHum8710" : 0.42,  "M01_1_NbJ_Tmoy20" : 0.60}, 
                "support" : 2,
                "support-set": ["plotid1", "plotid2"] 
            },
            {
                "rule-id" : 2,
                "confidence": {"r2-value": 0.2, "confidence-level" : "low"},
                "conditions": [ 
                    {"attribute-type" : "numerical", "attribute-name": "M06_1_ST5", "operator" : "<", "attribute-value": 120 }
                ],
                "attribution": { "M06_1_SP" : 0.2, "M05_2_NbJ_Tblo6": 0.12, "M05_2_NbJ_P05": 0.54 }, 
                "support" : 3,
                "support-set": ["plotid2", "plotid3", "plotid4"]  
            }
        ]
    }
}
